First Approver,Second Approver,Third Approver,Fourth Approver,email,Business Unit,Country,Designation/Title,Grade,Employee Full name,Function,Educational qualification/ Key skill,Date of Joining,Date of joining in the role,Promotion after 1st October (Yes/No),Performance Rating FY 2013,Salary increase in 2013,Performance Rating FY 2014,Salary increase in 2014,Performance Rating FY 2015,Functional Head's Name,Functional Head's Designation/Title,Currency,Current Base salary (as on 31st March),Current Target Variable Pay,Total Current Target Pay (Base + Target Variable),Market Data matching job code,Closest matched role,Mercer PC Class Match, Market 25th %ile , Market Median aged , Market 75th %ile 
rav@innctech.in,test3@gmail.com,test2@gmail.com,,test3@gmail.com,NEMEA Area Office,UAE,Executive Secretary,1,ABC-1,Business Operations,,05-Nov-13,05-Nov-13,No,Achieves Results/Good,10%,Achieves Results/Good,7%,Achieves Results/Good,Geeta Karandikar,Executive Secretary & office Manager ,AED,"129,600","12,960","142,560",220.108.410,Executive Secretary - Senior,47,1500000,1800000,2000000
test@gmail.com,,,,abc@gmail.com,NEMEA Area Office,IND,Frachisee Head - Speciality Care,4,ABC-2,Business Operations,,01-Sep-13,01-Sep-13,No,Achieves Results/Good,10%,Achieves Results/Good,7%,Achieves Results/Good,Michelle Erwee,Executive Director - Business Operations,AED,"553,765","110,753","664,518",400.030.120,Head of Sales & Marketing - Tier 3,56,600000,700000,800000
ravisingroli@gmail.com,,,,xyzz@gmail.com,NEMEA Area Officee,USA,Associate Director - Qualityy,4,ABC-3,Scientific Affairs,,01-Oct-10,01-Oct-10,No,Achieves Results/Good,10%,Achieves Results/Good,7%,Achieves Results/Good,Sadhna Joglekar,Executive Director - Medical,AED,"475,439","95,088","570,527",760.200.130,Head of Regulatory Affairs - Life Sciences (Closest match taken),56,500000,600000,700000
test2@gmail.com,,,,pp@gmail.com,NEMEA Area Office,UAE,Business Intelligence Associate,4,ABC-4,Business Operations,,16-Aug-15,16-Aug-15,No,Achieves Results/Good,10%,Achieves Results/Good,7%,Achieves Results/Needs Improvement,Michelle Erwee,Executive Director - Business Operations,AED,"195,000","39,000","234,000",210.352.340,Financial Planning Analyst - Senior (Closest Match taken),49,200000,300000,400000
